<svg xmlns="http://www.w3.org/2000/svg" width="23.921" height="19.563" viewBox="0 0 23.921 19.563">
  <path id="Path_7364" data-name="Path 7364" d="M1445.8,65.18a2.114,2.114,0,0,0,0-3.139l-.018-.015-8.627-7.8a1.536,1.536,0,0,0-2.168.109l-.021.024a1.533,1.533,0,0,0,.109,2.166l6.084,5.5h-17.013a1.568,1.568,0,0,0-1.569,1.569v.031a1.569,1.569,0,0,0,1.569,1.57h17.013l-6.084,5.5a1.534,1.534,0,0,0-.109,2.167l.021.023a1.535,1.535,0,0,0,2.168.109l8.627-7.8Z" transform="translate(-1422.574 -53.829)" fill="#ff0a80"/>
</svg>
