<svg xmlns="http://www.w3.org/2000/svg" width="348.873" height="37.794" viewBox="0 0 348.873 37.794">
  <g id="Group_1956" data-name="Group 1956" transform="translate(-499.65 -44.145)">
    <path id="Path_7324" data-name="Path 7324" d="M507.048,63.862c-1.6-1.12-5.079-3.039-7.4-4.279l2.519-3.52a82.732,82.732,0,0,1,7.559,3.84Zm29.676,1V69.5H511.768c-2,4-4.439,8.318-6.719,12.037l-4-3.2A126.906,126.906,0,0,0,508.528,65.9l2.04,1.84v-2.88h5.279V56.9h-4.559V52.345h4.559v-7.48h4.639v7.48h6.159v-7.52h4.639v7.52h4.96V56.9h-4.96v7.959ZM509.168,53.384a80.047,80.047,0,0,0-7.359-5.039l2.76-3.32c2.32,1.281,5.759,3.32,7.518,4.6Zm12.158,19.2a36.225,36.225,0,0,1-8,9.278,24.416,24.416,0,0,0-3.719-3,25,25,0,0,0,7.279-7.638Zm-.84-7.719h6.159V56.9h-6.159Zm9.319,6.32a49.561,49.561,0,0,1,6.8,8.238l-4,2.519a45.734,45.734,0,0,0-6.6-8.678Z" fill="#333"/>
    <path id="Path_7325" data-name="Path 7325" d="M538.81,78.66a19.77,19.77,0,0,0,4.959-6.8l3.959,1.76a24.828,24.828,0,0,1-4.959,7.358Zm35.713-21.637H539.93V53.344h8.358a15.729,15.729,0,0,0-.8-2.2l3-.6h-8.6v-3.68h12.958c-.2-.639-.44-1.319-.68-1.88l4.639-.84a18.543,18.543,0,0,1,1.16,2.72H572.4v3.68h-8.2l3.2.559c-.48.8-.88,1.56-1.28,2.24h8.4Zm-4.318,13.638H557.966a30.931,30.931,0,0,1,4.2,2.64l-2.92,2.92a27.8,27.8,0,0,0-6.279-3.96l1.64-1.6H544.449v-12.2h25.756Zm-9.279,7.079c1.48,0,1.72-.44,1.92-3.239a13.834,13.834,0,0,0,4.039,1.479c-.52,4.44-1.8,5.559-5.519,5.559h-6.439c-5.039,0-6.279-1.159-6.279-4.919v-4.2h4.639V76.58c0,1.04.32,1.16,2.12,1.16Zm4.559-16.317H548.928v1.72h16.557Zm0,4.519H548.928v1.72h16.557Zm-13.518-15.4a17.752,17.752,0,0,1,1.12,2.8h8.159c.4-.919.84-1.959,1.12-2.8ZM570.084,71.5a30.437,30.437,0,0,1,4.879,7.079l-4.119,1.84a29.6,29.6,0,0,0-4.6-7.239Z" fill="#333"/>
    <path id="Path_7326" data-name="Path 7326" d="M584.248,63.543a32.063,32.063,0,0,0-6.838-3.96l2.439-3.6a30.108,30.108,0,0,1,7,3.64ZM578.77,78.3a120.732,120.732,0,0,0,6.358-12.558l3.72,2.92c-1.72,4.159-3.8,8.678-5.839,12.558Zm3.559-33.2a27.116,27.116,0,0,1,6.519,3.56l-2.76,3.879a25.881,25.881,0,0,0-6.359-3.959ZM614.8,74.66H604.485v2.88c0,2.16-.44,3.2-2.08,3.8-1.519.6-3.759.6-6.719.559a17.343,17.343,0,0,0-1.319-3.919c1.84.081,4.079.081,4.679.04s.8-.16.8-.64V74.66H589.008V70.9h10.838v-1.84c1.12-.4,2.28-.879,3.4-1.4h-12V64.1h17.957l.879-.24,2.8,2.36a50.4,50.4,0,0,1-8.4,4.4v.28H614.8Zm-.44-22.756H589.607V48.025h9.919a11.5,11.5,0,0,0-1.12-2.559l4.159-1.16a12.181,12.181,0,0,1,1.6,3.719h10.2ZM592.207,62.583v-9h19.637v9Zm4.359-3.28h10.679v-2.48H596.566Z" fill="#333"/>
    <path id="Path_7327" data-name="Path 7327" d="M635.167,61.063a2.24,2.24,0,1,1-2.24,2.24A2.187,2.187,0,0,1,635.167,61.063Z" fill="#333"/>
    <path id="Path_7328" data-name="Path 7328" d="M690.764,48.705v6.839h-1.88V50.425H659.529v5.119H657.69V48.705h15.8a32.853,32.853,0,0,0-1.92-3.239l1.88-.6c.84,1.24,1.76,2.76,2.359,3.84ZM660.689,67.3h27.435V81.26h-1.919V79.939H662.528V81.46h-1.839Zm25.275-12.318H662.449v-1.56h23.515ZM662.528,68.941v3.84h10.559v-3.84Zm0,9.359h10.559v-4H662.528Zm.68-13.8V57.7h21.837v6.8Zm1.8-1.56h18.157V59.264H665.008Zm21.2,6H674.966v3.84h11.239Zm0,9.359v-4H674.966v4Z" fill="#333"/>
    <path id="Path_7329" data-name="Path 7329" d="M706.448,60.663a51.337,51.337,0,0,1-.48,6.639h8.918v1.8h-9.278a19.79,19.79,0,0,1-8.319,12.437,4.912,4.912,0,0,0-1.519-1.319A18.409,18.409,0,0,0,703.648,69.1H695.09V67.3h8.958a45.061,45.061,0,0,0,.52-6.639h-7.959V58.9h7.959V52.744c-2.8.481-5.639.84-8.278,1.16a5.556,5.556,0,0,0-.561-1.679c2.76-.321,5.879-.8,8.839-1.321V45.186h1.88v5.359a38.151,38.151,0,0,0,7.038-2l1.16,1.68a53.056,53.056,0,0,1-8.2,2.2V58.9h7.118v1.76Zm24.4-12.4c-1.92,3.759-4.48,8.279-6.8,12.038,5.039,3.72,6.439,6.919,6.439,9.919.039,2.119-.52,3.879-1.96,4.718a6.593,6.593,0,0,1-2.759.84,27.216,27.216,0,0,1-4.04,0,4.33,4.33,0,0,0-.6-1.84,23.979,23.979,0,0,0,4.04.121,5.956,5.956,0,0,0,2.159-.56c1.04-.6,1.36-1.88,1.36-3.4,0-2.76-1.6-5.8-6.719-9.519,2.28-3.72,4.639-8.039,6.279-11.358h-9.758V81.46h-1.88V47.425h12.638l.32-.119Z" fill="#333"/>
    <path id="Path_7330" data-name="Path 7330" d="M743.008,55.624c-1.319,5.719-3.719,12.8-7.519,17.237a9.257,9.257,0,0,0-1.76-1.04c3.76-4.319,6.08-11.158,7.16-16.6Zm10.318-9.839V78.34c0,1.76-.519,2.439-1.72,2.76a36.822,36.822,0,0,1-7.2.36,12.169,12.169,0,0,0-.84-2.04c3.12.08,5.879.04,6.719,0,.8,0,1.04-.28,1.04-1.04V45.785Zm9.479,9.239c3.6,5.6,7.039,12.917,8.078,17.637l-2,.8c-1-4.64-4.319-12.078-7.919-17.717Z" fill="#333"/>
    <path id="Path_7331" data-name="Path 7331" d="M780.368,62.343a33.329,33.329,0,0,0-7.278-4.36l1.079-1.4a32.49,32.49,0,0,1,7.279,4.119Zm-6,17.2a118.13,118.13,0,0,0,7.6-13l1.4,1.2a144.316,144.316,0,0,1-7.4,13.117Zm8.319-28a29.737,29.737,0,0,0-7.559-4.52l1.08-1.4a32.433,32.433,0,0,1,7.639,4.279Zm6.759-.08a38.424,38.424,0,0,1-5.759,9.078,17.354,17.354,0,0,0-1.52-1.4c3.319-3.44,6.079-8.679,7.759-14.159l1.88.481c-.48,1.4-1,2.839-1.6,4.2h16.757v1.04c-.08,14.117-.16,18.517-.96,19.756a2.49,2.49,0,0,1-2.12,1.08c-.88.04-2.439.04-3.959-.04a4.293,4.293,0,0,0-.56-1.84c1.68.16,3.239.16,3.84.16.52,0,.839-.04,1.119-.519.56-.88.68-5.2.76-17.837ZM804.6,78.42c2.4,0,2.8-.88,3.08-4.959a5.861,5.861,0,0,0,1.8.72c-.36,4.639-1.079,6-4.959,6H792.766c-4.319,0-5.6-.8-5.6-4.079V56.544h13.8V68.222H789.007v7.919c0,1.8.6,2.279,3.679,2.279Zm-15.6-20.156v8.2h10.2v-8.2Z" fill="#333"/>
    <path id="Path_7332" data-name="Path 7332" d="M832.127,68.061c2.759,6.24,8.438,10.159,16.4,11.639a6.327,6.327,0,0,0-1.2,1.72c-8.319-1.84-14.118-6.159-17.037-13.238-1.24,4.879-5.2,9.8-16.957,13.357a10.14,10.14,0,0,0-1.2-1.52c11.2-3.2,15.038-7.6,16.278-11.958H812.85V66.222h15.957a26.923,26.923,0,0,0,.2-3.559V60.3H815.649v-1.84h13.358V53.624h1.879v4.839h14.038V60.3H830.886v2.4a26.157,26.157,0,0,1-.2,3.519h16.958v1.839Zm-11.8-17.237H812.81v-1.76h7.518V45.145h1.88v3.919h7.039v1.76h-7.039v4.239h-1.88Zm17.437,0h-6.719v-1.76h6.719V45.186h1.88v3.878h8.2v1.76h-8.2V55.1h-1.88Z" fill="#333"/>
  </g>
</svg>
